{
    "development": {
        "PORT": 3000,
        "MONGODB_URI": "mongodb+srv://JJ:WEZbqVTPy5YFuFQm@forumdb.1kzeg.mongodb.net/myFirstDatabase?retryWrites=true&w=majority",
        "JWT_SECRET": "SECRET#123",
        "JWT_EXP": "1h"
    },
    "production": {
        "PORT": 80,
        "MONGODB_URI": "mongodb://xxxxx/DB_Name",
        "JWT_SECRET": "SECRET#123",
        "JWT_EXP": "2m"
    }
}